<?xml version="1.0" encoding="UTF-8"?>
<session version="1.0">
<refactoring comment="Rename package &apos;com.sapient.week3&apos; to &apos;com.sapient.week2&apos;&#x0D;&#x0A;- Original project: &apos;Demo&apos;&#x0D;&#x0A;- Original element: &apos;Demo/src/com.sapient.week3&apos;&#x0D;&#x0A;- Renamed element: &apos;Demo/src/com.sapient.week2&apos;&#x0D;&#x0A;- Update references to refactored element&#x0D;&#x0A;- Update textual occurrences in comments and strings" description="Rename package &apos;com.sapient.week3&apos;" flags="589830" hierarchical="false" id="org.eclipse.jdt.ui.rename.package" input="/src&lt;com.sapient.week3" name="com.sapient.week2" qualified="false" references="true" stamp="1562665765455" textual="false" version="1.0"/>
</session>